{
    "square-2": {
        "executor": "Yuriy Gyerts",
        "description": "\u041f\u043e\u0447\u0435\u043c\u0443 \u043d\u0435 \u0442\u0443\u0442!",
        "type": "square",
        "connected_to": {
            "type": "solid",
            "to": ""
        },
        "position": {
            "y": "489.703125",
            "x": "880.640625"
        }
    },
    "square-1": {
        "executor": "Anastasia Boyton",
        "description": "\u041f\u0440\u0438\u0432\u0435\u0442 \u041d\u0430\u0441\u0442\u044f!",
        "type": "square",
        "connected_to": {
            "type": "solid",
            "to": "square-2"
        },
        "position": {
            "y": "552.75",
            "x": "141.5"
        }
    },
    "square-3": {
        "executor": "Yuriy Gyerts",
        "description": "Is report OK?",
        "type": "rhombus",
        "connected_to": {
            "type": "solid",
            "to": "square-0"
        },
        "position": {
            "y": "301",
            "x": "0"
        }
    },
    "square-0": {
        "executor": "Yuriy Gyerts",
        "description": "\u041d\u0443\u0436\u043d\u043e \u0437\u0430\u0432\u0430\u0440\u0438\u0442\u044c \u0447\u0430\u0439 )",
        "type": "square",
        "connected_to": {
            "type": "solid",
            "to": "square-1"
        },
        "position": {
            "y": "300.875",
            "x": "471.828125"
        }
    }
}